{
  "name": "LightbendRPDeployer",
  "version": "0.1.0",
  "install": [
    {
      "name": "CreateService",
      "description": "Create the service using RP and kubectl",
      "command": "rp generate-kubernetes-resources --generate-services {{RPDisableHTTPS}} --namespace {{namespace}} {{repository}} | kubectl create -f -"
    },
    {
      "name": "CreateDeployment",
      "description": "Create the deployment using RP and kubectl",
      "command": "rp generate-kubernetes-resources --generate-pod-controllers {{RPDisableHTTPS}} --namespace {{namespace}} --pod-controller-image-pull-policy {{pullPolicy}} --pod-controller-replicas 2 {{DEPLOYER_PARAMETERS}} {{repository}} | kubectl create -f -"
    },
    {
      "name": "CreateKongAPI",
      "description": "Create the deployment using RP and kubectl",
      "command": "curl -s -i --max-time 3 --retry 3 -X POST --url {{kongAdminURL}}/apis/ --data name={{kongName}} --data {{kongStrip}} --data {{kongURIS}} --data {{kongUpstream}}"
    }
  ],
  "uninstall": [
    {
      "name": "RemoveService",
      "description": "",
      "command": "rp generate-kubernetes-resources --generate-services {{RPDisableHTTPS}} --namespace {{namespace}} {{repository}} | kubectl delete -f -"
    },
    {
      "name": "RemoveDeployment",
      "description": "",
      "command": "rp generate-kubernetes-resources --generate-pod-controllers {{RPDisableHTTPS}} --namespace {{namespace}} --pod-controller-image-pull-policy {{pullPolicy}} --pod-controller-replicas 2 {{repository}} | kubectl delete -f -"
    },
    {
      "name": "RemoveKongRule",
      "description": "",
      "command": "curl -i --max-time 3 --retry 3 -X DELETE --url {{kongAdminURL}}/apis/{{kongName}}"
    }
  ],
  "upgrade": [],
  "downgrade": []
}
